rockchip_panel.c:124:1:rockchip_get_display_mode_from_panel	0	static
rockchip_panel.c:135:30:rockchip_get_panel	64	static
rockchip_panel.c:152:5:rockchip_panel_init	16	static
rockchip_panel.c:165:6:rockchip_panel_deinit	16	static
rockchip_panel.c:178:5:rockchip_panel_prepare	16	static
rockchip_panel.c:191:5:rockchip_panel_unprepare	16	static
rockchip_panel.c:204:5:rockchip_panel_enable	16	static
rockchip_panel.c:217:5:rockchip_panel_disable	16	static
