rockchip_lvds.c:395:12:rk3288_lvds_pwr_on	0	static
rockchip_lvds.c:608:12:rockchip_lvds_prepare	0	static
rockchip_lvds.c:668:12:rockchip_lvds_disable	0	static
rockchip_lvds.c:202:12:rk336x_lvds_pwr_on	32	static
rockchip_lvds.c:600:13:rockchip_lvds_deinit	0	static
rockchip_lvds.c:511:12:rockchip_lvds_init	128	static
rockchip_lvds.c:640:12:rockchip_lvds_enable	32	static
